6/21 Santa Barbara Hackathon
…
## look at stationid

chem %>%
  dplyr::count(StationID) # 58 different stations. 

## # A tibble: 58 x 2
##    StationID     n
##    <chr>     <int>
##  1 CMWAP00     465
##  2 CMWCL00     458
##  3 CMWCM00     244
##  4 CMWCM01     388
##  5 CMWCP00     386
##  6 CMWFK00     450
##  7 CMWSM01     208
##  8 GVWAT1     1180
##  9 GVWAT2     1093
## 10 GVWAT3     1116
## # ... with 48 more rows
…
